{
  "project_info": {
    "project_number": "810343200006",
    "firebase_url": "https://dosti-2dce0.firebaseio.com",
    "project_id": "dosti-2dce0",
    "storage_bucket": "dosti-2dce0.appspot.com"
  },
  "client": [
    {
      "client_info": {
        "mobilesdk_app_id": "1:810343200006:android:2c9ff526cc0c67e2",
        "android_client_info": {
          "package_name": "com.tipstat.dosti"
        }
      },
      "oauth_client": [
        {
          "client_id": "810343200006-a8ft5590a31dtckht1mmjvool63eia6d.apps.googleusercontent.com",
          "client_type": 3
        }
      ],
      "api_key": [
        {
          "current_key": "AIzaSyBN6krSFbo7PpyuDHHX--_uObHM0BQKofM"
        }
      ],
      "services": {
        "analytics_service": {
          "status": 1
        },
        "appinvite_service": {
          "status": 1,
          "other_platform_oauth_client": []
        },
        "ads_service": {
          "status": 2
        }
      }
    }
  ],
  "configuration_version": "1"
}